output/wave.vcd
$date
	Sun Apr 26 19:51:35 2026
$end
$version
	Icarus Verilog
$end
$timescale
	1s
$end
$scope module tb_admin_unit $end
$var wire 1 ! session $end
$var parameter 32 " W $end
$var reg 1 # clk $end
$var reg 8 $ lifetime [7:0] $end
$var reg 1 % login $end
$var reg 1 & logout $end
$var reg 8 ' maxAttempts [7:0] $end
$var reg 1 ( rst $end
$var reg 8 ) timeout [7:0] $end
$var reg 1 * zero $end
$scope module _admin_unit $end
$var wire 1 # clk $end
$var wire 1 % login $end
$var wire 1 & logout $end
$var wire 1 + logout_clr $end
$var wire 8 , max [7:0] $end
$var wire 1 ( rst $end
$var wire 1 - sesff_clr $end
$var wire 1 . sesff_en $end
$var wire 1 * signal $end
$var wire 8 / tOut [7:0] $end
$var wire 8 0 tSes [7:0] $end
$var wire 1 1 valid $end
$var wire 1 2 val $end
$var wire 1 3 timeout $end
$var wire 8 4 inc [7:0] $end
$var wire 1 5 expired $end
$var parameter 32 6 width $end
$var reg 8 7 attempts [7:0] $end
$var reg 1 ! session $end
$scope module _logout $end
$var wire 1 # clk $end
$var wire 1 + clr $end
$var wire 1 ! en $end
$var wire 8 8 inc [7:0] $end
$var wire 1 ( rst $end
$var wire 8 9 tol [7:0] $end
$var wire 1 5 state $end
$var parameter 32 : width $end
$var reg 8 ; cycles [7:0] $end
$upscope $end
$scope module _timeout $end
$var wire 1 # clk $end
$var wire 1 < en $end
$var wire 8 = inc [7:0] $end
$var wire 1 ( rst $end
$var wire 8 > tol [7:0] $end
$var wire 1 3 state $end
$var wire 1 3 clr $end
$var parameter 32 ? width $end
$var reg 8 @ cycles [7:0] $end
$upscope $end
$upscope $end
$scope begin $ivl_for_loop0 $end
$var integer 32 A i [31:0] $end
$upscope $end
$scope begin $ivl_for_loop1 $end
$var integer 32 B i [31:0] $end
$upscope $end
$scope begin $ivl_for_loop2 $end
$var integer 32 C i [31:0] $end
$upscope $end
$scope begin $ivl_for_loop3 $end
$var integer 32 D i [31:0] $end
$upscope $end
$upscope $end
$enddefinitions $end
$comment Show the parameter values. $end
$dumpall
b1000 ?
b1000 :
b1000 6
b1000 "
$end
#0
$dumpvars
b0 D
b0 C
b0 B
b0 A
b0 @
b1010 >
b1 =
0<
b0 ;
b101 9
b1 8
b0 7
05
b1 4
03
02
11
b101 0
b1010 /
0.
0-
b11 ,
0+
0*
b1010 )
1(
b11 '
0&
0%
b101 $
0#
0!
$end
#5
0(
1#
#10
1.
1%
0#
#15
b1 7
1#
#20
0#
b1 A
#25
b10 7
1#
#30
0#
b10 A
#35
0.
1<
01
b11 7
1#
#40
b0 4
12
0#
1*
b11 A
#45
b1 @
1#
#50
0#
b100 A
#55
b10 @
1#
#60
0#
b1 B
#65
b11 @
1#
#70
0#
b10 B
#75
b100 @
1#
#80
0#
b11 B
#85
b101 @
1#
#90
0#
b100 B
#95
b110 @
1#
#100
0#
b101 B
#105
b111 @
1#
#110
0#
b110 B
#115
b1000 @
1#
#120
0#
b111 B
#125
b1001 @
1#
#130
0#
b1000 B
#135
13
b1010 @
1#
#140
0#
b1001 B
#145
1.
0<
11
b0 7
03
b0 @
1#
#150
0#
b1010 B
#155
1!
1#
#160
b1 4
02
0.
0#
0*
0%
b1011 B
#165
b1 ;
1#
#170
0#
b1 C
#175
b10 ;
1#
#180
0#
b10 C
#185
b11 ;
1#
#190
0#
b11 C
#195
b100 ;
1#
#200
0#
b100 C
#205
1-
1+
15
b101 ;
1#
#210
0#
b101 C
#215
0-
0+
05
b0 ;
0!
1#
#220
0#
b110 C
#225
1#
#230
b0 4
12
1.
0#
1*
1%
#235
1!
1#
#240
1+
1-
0.
0#
0*
1&
0%
b1 D
#245
0!
1#
#250
0#
b10 D
