src/alu/palu.vcd
$date
	Fri Apr 24 23:10:32 2026
$end
$version
	Icarus Verilog
$end
$timescale
	1ps
$end
$scope module pALU_tb $end
$var wire 4 ! flags [3:0] $end
$var wire 1 " Z $end
$var wire 32 # Y [31:0] $end
$var wire 1 $ V $end
$var wire 1 % N $end
$var wire 1 & C $end
$var parameter 32 ' MAX_POS $end
$var parameter 32 ( MIN_NEG $end
$var parameter 32 ) NEG_ONE $end
$var parameter 4 * OP_ADD $end
$var parameter 4 + OP_AND $end
$var parameter 4 , OP_DIV $end
$var parameter 4 - OP_MOD $end
$var parameter 4 . OP_MUL $end
$var parameter 4 / OP_OR $end
$var parameter 4 0 OP_SEQ $end
$var parameter 4 1 OP_SLL $end
$var parameter 4 2 OP_SRL $end
$var parameter 4 3 OP_SUB $end
$var parameter 4 4 OP_XOR $end
$var parameter 32 5 WIDTH $end
$var reg 32 6 A [31:0] $end
$var reg 32 7 B [31:0] $end
$var reg 4 8 op [3:0] $end
$scope module DUT $end
$var wire 32 9 A [31:0] $end
$var wire 32 : ANDres [31:0] $end
$var wire 32 ; A_s [31:0] $end
$var wire 32 < B [31:0] $end
$var wire 32 = B_s [31:0] $end
$var wire 32 > ORres [31:0] $end
$var wire 1 ? V_add $end
$var wire 1 @ V_sub $end
$var wire 32 A XORres [31:0] $end
$var wire 4 B op [3:0] $end
$var wire 4 C flags [3:0] $end
$var wire 1 D Z $end
$var wire 1 E V $end
$var wire 32 F SUBres [31:0] $end
$var wire 32 G SLRres [31:0] $end
$var wire 32 H SLLres [31:0] $end
$var wire 1 I SEQres $end
$var wire 1 J N $end
$var wire 64 K MULres [63:0] $end
$var wire 32 L MULTTRres [31:0] $end
$var wire 1 M C $end
$var wire 32 N ADDres [31:0] $end
$var parameter 32 O CUT $end
$var parameter 32 P WIDTH $end
$var reg 32 Q DIVres [31:0] $end
$var reg 32 R MODres [31:0] $end
$var reg 32 S Y [31:0] $end
$upscope $end
$scope task check $end
$upscope $end
$upscope $end
$enddefinitions $end
$comment Show the parameter values. $end
$dumpall
b100000 P
b101 O
b100000 5
b1001 4
b11 3
b1 2
b0 1
b1010 0
b1000 /
b100 .
b110 -
b101 ,
b111 +
b10 *
b11111111111111111111111111111111 )
b10000000000000000000000000000000 (
b1111111111111111111111111111111 '
$end
#0
$dumpvars
b10000 S
b1 R
b0 Q
b101 N
0M
b100 L
b100 K
0J
0I
b10000 H
b0 G
b11111111111111111111111111111101 F
0E
0D
b0 C
b0 B
b101 A
0@
0?
b101 >
b100 =
b100 <
b1 ;
b0 :
b1 9
b0 8
b100 7
b1 6
0&
0%
0$
b10000 #
0"
b0 !
$end
#1000
b10 #
b10 S
b10 H
b10000000000000000000000000000001 L
b0 R
b10000000000000000000000000000001 Q
b1 :
b10000000000000000000000000000001 >
b10000000000000000000000000000000 A
b1 =
b1 7
b1 <
b10000000000000000000000000000001 ;
b1000000000000000000000000000000 G
b10000000000000000000000000000010 N
b10000000000000000000000000000000 F
b1111111111111111111111111111111110000000000000000000000000000001 K
b10000000000000000000000000000001 6
b10000000000000000000000000000001 9
#2000
1%
b1000 !
b1000 C
1J
b0 Q
b0 :
b11111111111111111111111111111111 >
b11111111111111111111111111111111 A
b11111111111111111111111111111111 #
b11111111111111111111111111111111 S
b0 L
b0 =
b0 7
b0 <
b11111111111111111111111111111111 ;
b11111111111111111111111111111111 H
b11111111111111111111111111111111 G
b11111111111111111111111111111111 N
b11111111111111111111111111111111 F
b0 K
b11111111111111111111111111111111 6
b11111111111111111111111111111111 9
#3000
1%
b1000 !
b1000 C
1J
b11111 L
b1 R
b1 :
b11111 >
b11110 A
b10000000000000000000000000000000 #
b10000000000000000000000000000000 S
b11111 =
b11111 K
b11111 7
b11111 <
b1 ;
b10000000000000000000000000000000 H
b0 G
b100000 N
b11111111111111111111111111100010 F
b1 6
b1 9
#4000
1@
0%
b0 !
b0 C
0J
b0 R
b10000000000000000000000000000000 Q
b0 :
b10000000000000000000000000000001 >
b10000000000000000000000000000001 A
b10000000000000000000000000000000 L
b1000000000000000000000000000000 #
b1000000000000000000000000000000 S
b1 =
b1 7
b1 <
b10000000000000000000000000000000 ;
b0 H
b1000000000000000000000000000000 G
b10000000000000000000000000000001 N
b1111111111111111111111111111111 F
b1111111111111111111111111111111110000000000000000000000000000000 K
b10000000000000000000000000000000 6
b10000000000000000000000000000000 9
b1 8
b1 B
#5000
0@
b11 R
b111111 Q
b100 :
b11111111 >
b11111011 A
b1111 #
b1111 S
b1111111100 L
b100 =
b100 7
b100 <
b11111111 ;
b111111110000 H
b1111 G
b100000011 N
b11111011 F
b1111111100 K
b11111111 6
b11111111 9
#6000
b11111111111111111111111111111111 R
b0 Q
b11111 :
b11111111111111111111111111111111 >
b11111111111111111111111111100000 A
b1 #
b1 S
b11111111111111111111111111100001 L
b11111 =
b11111 7
b11111 <
b11111111111111111111111111111111 ;
b10000000000000000000000000000000 H
b1 G
b11110 N
b11111111111111111111111111100000 F
b1111111111111111111111111111111111111111111111111111111111100001 K
b11111111111111111111111111111111 6
b11111111111111111111111111111111 9
#7000
0&
b0 !
b0 C
0M
b1010 R
b0 :
b11110 >
b11110 A
b11001000 L
b11110 #
b11110 S
b10100 =
b10100 7
b10100 <
b1010 ;
b101000000000000000000000 H
b0 G
b11110 N
b11111111111111111111111111110110 F
b11001000 K
b1010 6
b1010 9
b10 8
b10 B
#8000
1"
b0 R
b0 >
b0 A
b100 !
b100 C
1D
b0 #
b0 S
b0 L
b0 =
1I
b0 7
b0 <
b0 ;
b0 H
b0 N
b0 F
b0 K
b0 6
b0 9
#9000
1$
1E
1?
1%
1J
0"
b1111111111111111111111111111111 L
b1111111111111111111111111111111 Q
b1 :
b1111111111111111111111111111111 >
b1111111111111111111111111111110 A
b1001 !
b1001 C
0D
b10000000000000000000000000000000 #
b10000000000000000000000000000000 S
b1 =
b1111111111111111111111111111111 K
b1 7
b1 <
b1111111111111111111111111111111 ;
b11111111111111111111111111111110 H
b111111111111111111111111111111 G
b10000000000000000000000000000000 N
b1111111111111111111111111111110 F
0I
b1111111111111111111111111111111 6
b1111111111111111111111111111111 9
#10000
1&
1M
0%
b11 !
b11 C
0J
b10000000000000000000000000000000 Q
b10000000000000000000000000000000 :
b11111111111111111111111111111111 >
b1111111111111111111111111111111 A
b1111111111111111111111111111111 #
b1111111111111111111111111111111 S
b10000000000000000000000000000000 L
b11111111111111111111111111111111 =
b11111111111111111111111111111111 7
b11111111111111111111111111111111 <
b10000000000000000000000000000000 ;
b0 H
b1 G
b1111111111111111111111111111111 N
b10000000000000000000000000000001 F
b10000000000000000000000000000000 K
b10000000000000000000000000000000 6
b10000000000000000000000000000000 9
#11000
0$
0E
0?
1"
b1111111111111111111111111111111 G
b11111111111111111111111111111111 Q
b1 :
b11111111111111111111111111111110 A
b11111111111111111111111111111111 L
b110 !
b110 C
1D
b0 #
b0 S
b1 =
b1 7
b1 <
b11111111111111111111111111111111 ;
b11111111111111111111111111111110 H
b0 N
b11111111111111111111111111111110 F
b1111111111111111111111111111111111111111111111111111111111111111 K
0I
b11111111111111111111111111111111 6
b11111111111111111111111111111111 9
#12000
1%
1J
0"
b11111111111111111111111111111110 R
b1 Q
b11111111111111111111111111111001 :
b110 A
b1010 !
b1010 C
0D
b11111111111111111111111111111000 #
b11111111111111111111111111111000 S
b1111 L
b11111111111111111111111111111101 =
b11111111111111111111111111111101 7
b11111111111111111111111111111101 <
b11111111111111111111111111111011 ;
b1100000000000000000000000000000 H
b111 G
b11111111111111111111111111111000 N
b11111111111111111111111111111110 F
b1111 K
b11111111111111111111111111111011 6
b11111111111111111111111111111011 9
#13000
0%
0&
0J
b0 !
b0 C
0M
b0 R
b11 Q
b1010 :
b11110 >
b10100 A
b100101100 L
b10100 #
b10100 S
b1010 =
b1010 7
b1010 <
b11110 ;
b111100000000000 H
b0 G
b101000 N
b10100 F
b100101100 K
b11110 6
b11110 9
b11 8
b11 B
#14000
1"
b1 Q
b101 :
b101 >
b0 A
b100 !
b100 C
1D
b0 #
b0 S
b11001 L
b101 =
1I
b101 7
b101 <
b101 ;
b10100000 H
b1010 N
b0 F
b11001 K
b101 6
b101 9
#15000
1&
1%
1M
1J
0"
b11 R
b0 Q
b10 :
b1011 >
b1001 A
b11110 L
b1010 !
b1010 C
0D
b11111111111111111111111111111001 #
b11111111111111111111111111111001 S
b1010 =
b1010 7
b1010 <
b11 ;
b110000000000 H
b1101 N
b11111111111111111111111111111001 F
b11110 K
0I
b11 6
b11 9
#16000
1$
1E
0&
0%
1@
0M
b1 !
b1 C
0J
b0 R
b10000000000000000000000000000000 Q
b0 :
b10000000000000000000000000000001 >
b10000000000000000000000000000001 A
b1111111111111111111111111111111 #
b1111111111111111111111111111111 S
b10000000000000000000000000000000 L
b1 =
b1 7
b1 <
b10000000000000000000000000000000 ;
b0 H
b1000000000000000000000000000000 G
b10000000000000000000000000000001 N
b1111111111111111111111111111111 F
b1111111111111111111111111111111110000000000000000000000000000000 K
b10000000000000000000000000000000 6
b10000000000000000000000000000000 9
#17000
1&
1M
1%
b1011 !
b1011 C
1J
b10000000000000000000000000000001 Q
b1111111111111111111111111111111 :
b11111111111111111111111111111111 >
b10000000000000000000000000000000 A
b10000000000000000000000000000000 #
b10000000000000000000000000000000 S
b10000000000000000000000000000001 L
b11111111111111111111111111111111 =
b11111111111111111111111111111111 7
b11111111111111111111111111111111 <
b1111111111111111111111111111111 ;
b10000000000000000000000000000000 H
b0 G
b1111111111111111111111111111110 N
b10000000000000000000000000000000 F
b1111111111111111111111111111111110000000000000000000000000000001 K
b1111111111111111111111111111111 6
b1111111111111111111111111111111 9
#18000
0%
0&
0@
0J
0M
0$
b0 !
b0 C
0E
b110 R
b0 Q
b110 :
b111 >
b1 A
b101010 L
b101010 #
b101010 S
b111 =
b111 7
b111 <
b110 ;
b1100000000 H
b1101 N
b11111111111111111111111111111111 F
b101010 K
b110 6
b110 9
b100 8
b100 B
#19000
1%
b1000 !
b1000 C
1J
b11111111111111111111111111111010 R
b10 :
b11111111111111111111111111111111 >
b11111111111111111111111111111101 A
b11111111111111111111111111010110 #
b11111111111111111111111111010110 S
b11111111111111111111111111010110 L
b11111111111111111111111111111010 ;
b11111111111111111111110100000000 H
b1111111111111111111111111 G
b1 N
b11111111111111111111111111110011 F
b1111111111111111111111111111111111111111111111111111111111010110 K
b11111111111111111111111111111010 6
b11111111111111111111111111111010 9
#20000
0%
b0 !
b0 C
0J
b11111111111111111111111111111000 :
b11111111111111111111111111111011 >
b11 A
b11110100000000000000000000000000 H
b1111111 G
b101010 #
b101010 S
b101010 L
b11111111111111111111111111111001 =
b11111111111111111111111111110011 N
b1 F
b101010 K
b11111111111111111111111111111001 7
b11111111111111111111111111111001 <
#21000
1"
b0 R
b0 :
b10011100001111 >
b10011100001111 A
b100 !
b100 C
1D
b0 #
b0 S
b0 L
b10011100001111 =
b10011100001111 7
b10011100001111 <
b0 ;
b0 H
b0 G
b10011100001111 N
b11111111111111111101100011110001 F
b0 K
b0 6
b0 9
#22000
b1 Q
b10000000000000000 :
b10000000000000000 >
b0 A
b10000000000000000 =
1I
b10000000000000000 7
b10000000000000000 <
b10000000000000000 ;
b10000000000000000 H
b10000000000000000 G
b100000000000000000 N
b0 F
b100000000000000000000000000000000 K
b10000000000000000 6
b10000000000000000 9
#23000
0"
b111 Q
b10 :
b101110 >
b101100 A
b11111100 L
b0 !
b0 C
0D
b111 #
b111 S
b110 =
b110 7
b110 <
b101010 ;
b101010000000 H
b0 G
b110000 N
b100100 F
b11111100 K
0I
b101010 6
b101010 9
b101 8
b101 B
#24000
1%
b1000 !
b1000 C
1J
b11111111111111111111111111111001 #
b11111111111111111111111111111001 S
b11111111111111111111111111111001 Q
b110 :
b11111111111111111111111111010110 >
b11111111111111111111111111010000 A
b11111111111111111111111100000100 L
b11111111111111111111111111010110 ;
b11111111111111111111010110000000 H
b11111111111111111111111111 G
b11111111111111111111111111011100 N
b11111111111111111111111111010000 F
b1111111111111111111111111111111111111111111111111111111100000100 K
b11111111111111111111111111010110 6
b11111111111111111111111111010110 9
#25000
0%
b0 !
b0 C
0J
b111 #
b111 S
b111 Q
b11111111111111111111111111010010 :
b11111111111111111111111111111110 >
b101100 A
b1011000000000000000000000000000 H
b111111 G
b11111100 L
b11111111111111111111111111111010 =
b11111111111111111111111111010000 N
b11111111111111111111111111011100 F
b11111100 K
b11111111111111111111111111111010 7
b11111111111111111111111111111010 <
#26000
b11 #
b11 S
b1 R
b11 Q
b10 :
b1011 >
b1001 A
b11110 L
b11 =
b11 7
b11 <
b1010 ;
b1010000 H
b1 G
b1101 N
b111 F
b11110 K
b1010 6
b1010 9
#27000
1"
b100 !
b100 C
1D
b0 #
b0 S
b0 R
b0 Q
b0 :
b1100100 >
b1100100 A
b0 L
b0 =
b0 7
b0 <
b1100100 ;
b1100100 H
b1100100 G
b1100100 N
b1100100 F
b0 K
b1100100 6
b1100100 9
#28000
0"
b0 !
b0 C
0D
b1 #
b1 S
b11110 L
b1 R
b11 Q
b10 :
b1011 >
b1001 A
b11 =
b11110 K
b11 7
b11 <
b1010 ;
b1010000 H
b1 G
b1101 N
b111 F
b1010 6
b1010 9
b110 8
b110 B
#29000
1%
b1000 !
b1000 C
1J
b11111111111111111111111111111111 #
b11111111111111111111111111111111 S
b11111111111111111111111111111111 R
b11111111111111111111111111111101 Q
b11111111111111111111111111110111 >
b11111111111111111111111111110101 A
b11111111111111111111111111100010 L
b11111111111111111111111111110110 ;
b11111111111111111111111110110000 H
b11111111111111111111111111110 G
b11111111111111111111111111111001 N
b11111111111111111111111111110011 F
b1111111111111111111111111111111111111111111111111111111111100010 K
b11111111111111111111111111110110 6
b11111111111111111111111111110110 9
#30000
0%
0J
1"
b100 !
b100 C
1D
b0 #
b0 S
b0 R
b11 Q
b1 :
b1011 >
b1010 A
b11011 L
b1001 ;
b1001000 H
b1 G
b1100 N
b110 F
b11011 K
b1001 6
b1001 9
#31000
0"
b0 !
b0 C
0D
b11 #
b11 S
b11 R
b0 Q
b111 >
b110 A
b1111 L
b101 =
b101 7
b101 <
b11 ;
b1100000 H
b0 G
b1000 N
b11111111111111111111111111111110 F
b1111 K
0I
b11 6
b11 9
#32000
1"
b100 !
b100 C
1D
b0 #
b0 S
b1010 G
b0 R
b0 :
b1010 >
b1010 A
b0 L
b0 =
b0 7
b0 <
b1010 ;
b1010 H
b1010 N
b1010 F
b0 K
b1010 6
b1010 9
#33000
0"
b0 !
b0 C
0D
b1111000000000000111100000000 #
b1111000000000000111100000000 S
b101111111000000001000000000000 L
b11111111000000001111111100000000 R
b1111000000000000111100000000 :
b11111111111100001111111111110000 >
b11110000111100001111000011110000 A
b1111111100000000111111110000 =
b1111111111110000000111111101000000101111111000000001000000000000 K
b1111111100000000111111110000 7
b1111111100000000111111110000 <
b11111111000000001111111100000000 ;
b11111111000000000000000000000000 H
b1111111100000000 G
b1110111100010000111011110000 N
b11101111000100001110111100010000 F
b11111111000000001111111100000000 6
b11111111000000001111111100000000 9
b111 8
b111 B
#34000
1"
b100 !
b100 C
1D
b0 #
b0 S
b0 R
b0 :
b11111111111111111111111111111111 >
b11111111111111111111111111111111 A
b0 L
b0 =
b0 7
b0 <
b11111111111111111111111111111111 ;
b11111111111111111111111111111111 H
b11111111111111111111111111111111 G
b11111111111111111111111111111111 N
b11111111111111111111111111111111 F
b0 K
b11111111111111111111111111111111 6
b11111111111111111111111111111111 9
#35000
1%
1J
0"
b1000 !
b1000 C
0D
b11111111111111111111111111111111 #
b11111111111111111111111111111111 S
b1 Q
b11111111111111111111111111111111 :
b0 A
b10000000000000000000000000000000 H
b1 G
b1 L
b11111111111111111111111111111111 =
b11111111111111111111111111111110 N
b0 F
b1 K
1I
b11111111111111111111111111111111 7
b11111111111111111111111111111111 <
#36000
b11111111111111111111111111111111 R
b11111111111111111111111111111111 Q
b0 :
b11111111111111111111111111111111 A
b1000000000000000000000000 L
b111111111111111111111111 =
b111111111111111111111111 7
b111111111111111111111111 <
b11111111000000000000000000000000 ;
b0 H
b11111111111111111111111111111111 N
b11111110000000000000000000000001 F
b1111111111111111000000000000000000000001000000000000000000000000 K
0I
b11111111000000000000000000000000 6
b11111111000000000000000000000000 9
b1000 8
b1000 B
#37000
0%
0J
1"
b100 !
b100 C
1D
b0 #
b0 S
b0 R
b0 Q
b0 >
b0 A
b0 L
b0 =
1I
b0 7
b0 <
b0 ;
b0 G
b0 N
b0 F
b0 K
b0 6
b0 9
#38000
1%
1J
0"
1@
b1000 !
b1000 C
0D
b11111111111111111111111111111111 #
b11111111111111111111111111111111 S
b1110001110001110001110001110010 L
b11111111111111111111111111111111 R
b11111111111111111111111111111111 Q
b11111111111111111111111111111111 >
b11111111111111111111111111111111 A
b1010101010101010101010101010101 =
b1110001110001110001110001110001101110001110001110001110001110010 K
b1010101010101010101010101010101 7
b1010101010101010101010101010101 <
b10101010101010101010101010101010 ;
b1010101010000000000000000000000 H
b10101010101 G
b11111111111111111111111111111111 N
b1010101010101010101010101010101 F
0I
b10101010101010101010101010101010 6
b10101010101010101010101010101010 9
b1001 8
b1001 B
#39000
0%
0@
0J
1"
b100 !
b100 C
1D
b0 #
b0 S
b0 R
b1 Q
b11011010101011011111111010101011 :
b11011010101011011111111010101011 >
b0 A
b1101100011101011100011000111001 L
b11011010101011011111111010101011 =
1I
b11011010101011011111111010101011 7
b11011010101011011111111010101011 <
b11011010101011011111111010101011 ;
b1101111111101010101100000000000 H
b110110101010110111111 G
b10110101010110111111110101010110 N
b0 F
b10101110000110011101010011101101100011101011100011000111001 K
b11011010101011011111111010101011 6
b11011010101011011111111010101011 9
#40000
0"
b101010 :
b101010 >
b11011100100 L
b0 !
b0 C
0D
b1 #
b1 S
b101010 =
b101010 7
b101010 <
b101010 ;
b1010100000000000 H
b0 G
b1010100 N
b0 F
b11011100100 K
1I
b101010 6
b101010 9
b1010 8
b1010 B
#41000
1"
b101010 R
b0 Q
b101011 >
b1 A
b10101000000000000 H
b11100001110 L
b100 !
b100 C
1D
b0 #
b0 S
b101011 =
b1010101 N
b11111111111111111111111111111111 F
b11100001110 K
0I
b101011 7
b101011 <
#42000
0"
b0 R
b1 Q
b11111111111111111111111111111111 :
b11111111111111111111111111111111 >
b0 A
b0 !
b0 C
0D
b1 #
b1 S
b1 L
b11111111111111111111111111111111 =
1I
b11111111111111111111111111111111 7
b11111111111111111111111111111111 <
b11111111111111111111111111111111 ;
b10000000000000000000000000000000 H
b1 G
b11111111111111111111111111111110 N
b0 F
b1 K
b11111111111111111111111111111111 6
b11111111111111111111111111111111 9
#43000
1"
b11000000000000000000000000000000 H
b11 G
b11011110101011011011111011101111 R
b0 Q
b11001010101011001011101010101110 :
b11011110111111111011111011111111 >
b10100010100110000010001010001 A
b10001000110011110101101101100010 L
b100 !
b100 C
1D
b0 #
b0 S
b11001010111111101011101010111110 =
b11001010111111101011101010111110 7
b11001010111111101011101010111110 <
b11011110101011011011111011101111 ;
b10101001101011000111100110101101 N
b10011101011110000010000110001 F
b11011100110001100011100111010001000110011110101101101100010 K
0I
b11011110101011011011111011101111 6
b11011110101011011011111011101111 9
b1111 8
b1111 B
